{
    "name": "PlayerAction",
    "maps": [
        {
            "name": "Player",
            "id": "25215b16-d0ec-408e-ab9d-2fd6dedc937a",
            "actions": [
                {
                    "name": "Move",
                    "type": "Value",
                    "id": "eb0022b4-6523-4b64-910c-fabbee8eea18",
                    "expectedControlType": "Vector2",
                    "processors": "",
                    "interactions": "Press(behavior=2)",
                    "initialStateCheck": true
                },
                {
                    "name": "Jump",
                    "type": "Button",
                    "id": "28d7f0ed-a1ab-433d-8281-1ac0f520b883",
                    "expectedControlType": "Button",
                    "processors": "",
                    "interactions": "",
                    "initialStateCheck": false
                }
            ],
            "bindings": [
                {
                    "name": "WASD",
                    "id": "6bd5293c-10fc-435a-a73c-18bee7a844b9",
                    "path": "2DVector",
                    "interactions": "",
                    "processors": "",
                    "groups": "",
                    "action": "Move",
                    "isComposite": true,
                    "isPartOfComposite": false
                },
                {
                    "name": "up",
                    "id": "f4e35a41-696b-4d78-9b0c-c31d36ef6d21",
                    "path": "<Keyboard>/w",
                    "interactions": "",
                    "processors": "",
                    "groups": "",
                    "action": "Move",
                    "isComposite": false,
                    "isPartOfComposite": true
                },
                {
                    "name": "down",
                    "id": "6deffa42-39bd-40a7-8743-5892fac19edf",
                    "path": "<Keyboard>/s",
                    "interactions": "",
                    "processors": "",
                    "groups": "",
                    "action": "Move",
                    "isComposite": false,
                    "isPartOfComposite": true
                },
                {
                    "name": "left",
                    "id": "7bd705b8-451d-4871-86de-537b6e0b84f1",
                    "path": "<Keyboard>/a",
                    "interactions": "",
                    "processors": "",
                    "groups": "",
                    "action": "Move",
                    "isComposite": false,
                    "isPartOfComposite": true
                },
                {
                    "name": "right",
                    "id": "50aa768b-ac80-483e-b8cb-8ccbc17c1325",
                    "path": "<Keyboard>/d",
                    "interactions": "",
                    "processors": "",
                    "groups": "",
                    "action": "Move",
                    "isComposite": false,
                    "isPartOfComposite": true
                },
                {
                    "name": "",
                    "id": "a64babf7-3cbc-43e8-a490-2d63b3f69808",
                    "path": "<Keyboard>/space",
                    "interactions": "",
                    "processors": "",
                    "groups": "",
                    "action": "Jump",
                    "isComposite": false,
                    "isPartOfComposite": false
                }
            ]
        }
    ],
    "controlSchemes": []
}